{
  "alfalot": {
    "process": false,
    "status": "enabled",
    "main_url": "https://bankrupt.alfalot.ru",
    "start_url": "https://bankrupt.alfalot.ru/public/purchases-all/",
    "slow_mo": 2000,
    "last_update": "2023-03-13T23:54:18.457474",
    "limit_page": 20
  },
  "arbitat": {
    "process": false,
    "status": "enabled",
    "main_url": "http://arbitat.ru",
    "start_url": "http://arbitat.ru/public/purchases-all/",
    "slow_mo": null,
    "last_update": "2023-03-13T18:03:37.688877",
    "limit_page": 100
  },
  "bankrupt_tender": {
    "process": false,
    "status": "enabled",
    "main_url": "http://bankrupt.tender.one",
    "start_url": "http://bankrupt.tender.one/public/purchases-all/",
    "slow_mo": null,
    "last_update": "2023-03-13T18:14:57.464074",
    "limit_page": 999
  },
  "bepspb": {
    "process": false,
    "status": "disabled",
    "main_url": "https://bepspb.ru",
    "start_url": "https://bepspb.ru/public/purchases-all/",
    "last_update": "2023-03-11T01:32:32.907454"
  },
  "centerr": {
    "process": false,
    "status": "enabled",
    "main_url": "http://business.centerr.ru",
    "start_url": "http://business.centerr.ru/public/purchases-all/",
    "slow_mo": null,
    "last_update": "2023-03-11T02:20:28.495987",
    "limit_page": 999
  },
  "electro_torgi": {
    "process": false,
    "status": "enabled",
    "main_url": "https://bankrupt.electro-torgi.ru",
    "start_url": "https://bankrupt.electro-torgi.ru/public/purchases-all/",
    "slow_mo": null,
    "last_update": "2023-03-11T03:44:55.560559",
    "limit_page": 999
  },
  "etp_bankrotstvo": {
    "process": false,
    "status": "enabled",
    "main_url": "https://torgi.lot-bankrot.com",
    "start_url": "https://torgi.lot-bankrot.com/public/purchases-all/",
    "slow_mo": null,
    "last_update": "2023-03-11T03:45:27.404281",
    "limit_page": 999
  },
  "etpu": {
    "process": false,
    "status": "enabled",
    "main_url": "http://bankrupt.etpu.ru",
    "start_url": "http://bankrupt.etpu.ru/public/purchases-all/",
    "slow_mo": null,
    "last_update": "2023-03-11T04:09:45.596359",
    "limit_page": 999
  },
  "etpugra": {
    "process": false,
    "status": "disabled",
    "main_url": "https://etpugra.ru",
    "start_url": "https://etpugra.ru/public/purchases-all/",
    "last_update": "2023-03-11T01:32:32.909934"
  },
  "gloriaservice": {
    "process": false,
    "status": "enabled",
    "main_url": "https://gloriaservice.ru",
    "start_url": "https://gloriaservice.ru/public/purchases-all/",
    "slow_mo": null,
    "last_update": "2023-03-11T04:11:34.707272",
    "limit_page": 999
  },
  "meta_invest": {
    "process": false,
    "status": "enabled",
    "main_url": "http://meta-invest.ru",
    "start_url": "http://meta-invest.ru/public/purchases-all/",
    "slow_mo": null,
    "last_update": "2023-03-11T04:20:51.947912",
    "limit_page": 999
  },
  "propertytrade": {
    "process": false,
    "status": "enabled",
    "main_url": "http://propertytrade.ru",
    "start_url": "http://propertytrade.ru/public/purchases-all/",
    "slow_mo": null,
    "last_update": "2023-03-11T04:22:53.716743",
    "limit_page": 999
  },
  "tendergarant": {
    "process": false,
    "status": "enabled",
    "main_url": "http://tendergarant.com",
    "start_url": "http://tendergarant.com/public/purchases-all/",
    "slow_mo": null,
    "last_update": "2023-03-11T04:26:40.763347",
    "limit_page": 999
  },
  "torgibankrot": {
    "process": false,
    "status": "enabled",
    "main_url": "https://torgibankrot.ru",
    "start_url": "https://torgibankrot.ru/public/purchases-all/",
    "slow_mo": null,
    "last_update": "2023-03-11T04:52:17.252744",
    "limit_page": 999
  },
  "uralbidin": {
    "process": false,
    "status": "enabled",
    "main_url": "https://uralbidin.ru",
    "start_url": "https://uralbidin.ru/public/purchases-all/",
    "slow_mo": null,
    "last_update": "2023-03-11T04:55:12.988987",
    "limit_page": 999
  },
  "utender": {
    "process": false,
    "status": "enabled",
    "main_url": "http://utender.ru",
    "start_url": "http://utender.ru/public/purchases-all/",
    "slow_mo": null,
    "last_update": "2023-03-11T02:07:54.770808",
    "limit_page": 999
  },
  "utpl": {
    "process": false,
    "status": "enabled",
    "main_url": "https://bankrupt.utpl.ru",
    "start_url": "https://bankrupt.utpl.ru/public/purchases-all/",
    "slow_mo": null,
    "last_update": "2023-03-11T02:08:08.041547",
    "limit_page": 999
  },
  "zakazrf": {
    "process": false,
    "status": "disabled",
    "main_url": "https://bankrot.zakazrf.ru",
    "start_url": "https://bankrot.zakazrf.ru/public/purchases-all/",
    "last_update": "2023-03-11T01:32:32.914190"
  }
}